<?xml version="1.0" encoding="UTF-8" standalone="no"?>
<!DOCTYPE svg PUBLIC "-//W3C//DTD SVG 1.1//EN"
 "http://www.w3.org/Graphics/SVG/1.1/DTD/svg11.dtd">
<!-- Generated by graphviz version 2.47.3 (20210619.1520)
 -->
<!-- Title: dependencies Pages: 1 -->
<svg width="244pt" height="247pt"
 viewBox="0.00 0.00 244.00 246.80" xmlns="http://www.w3.org/2000/svg" xmlns:xlink="http://www.w3.org/1999/xlink">
<g id="graph0" class="graph" transform="scale(1 1) rotate(0) translate(4 242.8)">
<title>dependencies</title>
<polygon fill="white" stroke="transparent" points="-4,4 -4,-242.8 240,-242.8 240,4 -4,4"/>
<text text-anchor="middle" x="118" y="-8.2" font-family="sans-serif" font-size="14.00">dependencies</text>
<g id="clust1" class="cluster">
<title>cluster_TMModule</title>
<polygon fill="none" stroke="black" stroke-dasharray="1,5" points="8,-32.8 8,-230.8 228,-230.8 228,-32.8 8,-32.8"/>
</g>
<g id="clust5" class="cluster">
<title>cluster_TMModule_exports</title>
<polygon fill="none" stroke="black" points="16,-170.8 16,-222.8 220,-222.8 220,-170.8 16,-170.8"/>
</g>
<g id="clust2" class="cluster">
<title>cluster_TMModule_declarations</title>
<polygon fill="none" stroke="black" points="18,-40.8 18,-92.8 218,-92.8 218,-40.8 18,-40.8"/>
</g>
<!-- WorkplaceWidgetComponent -->
<g id="node1" class="node">
<title>WorkplaceWidgetComponent</title>
<polygon fill="#ffffb3" stroke="black" points="209.95,-84.8 26.05,-84.8 26.05,-48.8 209.95,-48.8 209.95,-84.8"/>
<text text-anchor="middle" x="118" y="-62.6" font-family="Times,serif" font-size="14.00">WorkplaceWidgetComponent</text>
</g>
<!-- TMModule -->
<g id="node2" class="node">
<title>TMModule</title>
<polygon fill="#8dd3c7" stroke="black" points="158.05,-149.8 155.05,-153.8 134.05,-153.8 131.05,-149.8 77.95,-149.8 77.95,-113.8 158.05,-113.8 158.05,-149.8"/>
<text text-anchor="middle" x="118" y="-127.6" font-family="Times,serif" font-size="14.00">TMModule</text>
</g>
<!-- WorkplaceWidgetComponent&#45;&gt;TMModule -->
<g id="edge1" class="edge">
<title>WorkplaceWidgetComponent&#45;&gt;TMModule</title>
<path fill="none" stroke="black" d="M118,-84.91C118,-84.91 118,-103.79 118,-103.79"/>
<polygon fill="black" stroke="black" points="114.5,-103.79 118,-113.79 121.5,-103.79 114.5,-103.79"/>
</g>
<!-- WorkplaceWidgetComponent  -->
<g id="node3" class="node">
<title>WorkplaceWidgetComponent </title>
<polygon fill="#fb8072" stroke="black" points="211.95,-214.8 24.05,-214.8 24.05,-178.8 211.95,-178.8 211.95,-214.8"/>
<text text-anchor="middle" x="118" y="-192.6" font-family="Times,serif" font-size="14.00">WorkplaceWidgetComponent </text>
</g>
<!-- TMModule&#45;&gt;WorkplaceWidgetComponent  -->
<g id="edge2" class="edge">
<title>TMModule&#45;&gt;WorkplaceWidgetComponent </title>
<path fill="none" stroke="black" stroke-dasharray="5,2" d="M118,-149.91C118,-149.91 118,-168.79 118,-168.79"/>
<polygon fill="black" stroke="black" points="114.5,-168.79 118,-178.79 121.5,-168.79 114.5,-168.79"/>
</g>
</g>
</svg>
